<?xml version="1.0" encoding="utf-8"?>
<!-- Generator: Adobe Illustrator 16.0.4, SVG Export Plug-In . SVG Version: 6.00 Build 0)  -->
<!DOCTYPE svg PUBLIC "-//W3C//DTD SVG 1.1//EN" "http://www.w3.org/Graphics/SVG/1.1/DTD/svg11.dtd">
<svg version="1.1" id="Layer_1" xmlns="http://www.w3.org/2000/svg" xmlns:xlink="http://www.w3.org/1999/xlink" x="0px" y="0px"
	 width="200px" height="200px" viewBox="0 0 200 200" style="enable-background:new 0 0 200 200;" xml:space="preserve">
<style type="text/css">
<![CDATA[
	.st0{fill:#E5912F;}
	.st1{fill:#4D4C4E;}
	.st2{fill:#5958C1;}
	.st3{fill:#8DB734;}
	.st4{fill:#BF7A7C;}
	.st5{fill:#90C84B;}
	.st6{fill:#60B22E;}
	.st7{fill:#6B7475;}
	.st8{fill:#00B4CF;}
	.st9{fill:#D6264F;}
]]>
</style>
<path class="st7" d="M192.381,116.54c1.83,1.825,2.717,4.03,2.611,6.657c0,1.983-0.639,3.782-1.895,5.36
	c-1.266,1.571-2.901,2.616-4.895,3.08l-23.063,5.824c0.49,1.461,1.07,3.355,1.767,5.734c0.707,2.379,1.462,4.8,2.216,7.253
	c0.755,2.453,1.403,4.827,1.963,7.063c0.554,2.284,0.833,4.12,0.833,5.534c0,2.3-0.844,4.367-2.563,6.146
	c-1.693,1.762-3.782,2.669-6.246,2.669c-1.424,0-3.318-0.274-5.581-0.828c-2.311-0.554-4.663-1.219-7.101-1.973
	c-2.427-0.749-4.806-1.472-7.127-2.179c-2.342-0.733-4.272-1.313-5.781-1.799l-5.824,23.084c-0.485,1.963-1.529,3.619-3.144,4.933
	c-1.636,1.308-3.424,1.957-5.423,1.957c-2.596,0-4.79-0.892-6.521-2.738l-16.575-16.991l-16.887,16.991
	c-1.402,1.847-3.539,2.738-6.309,2.738c-1.999,0-3.762-0.649-5.328-1.957c-1.604-1.313-2.68-2.97-3.202-4.933l-5.86-23.084
	c-1.44,0.485-3.334,1.065-5.655,1.799c-2.321,0.707-4.731,1.43-7.185,2.179c-2.469,0.754-4.827,1.419-7.079,1.973
	c-2.264,0.554-4.152,0.828-5.671,0.828c-2.453,0-4.506-0.907-6.178-2.669c-1.656-1.778-2.484-3.846-2.484-6.146
	c0-1.414,0.248-3.25,0.828-5.534c0.543-2.236,1.171-4.61,1.889-7.063c0.743-2.453,1.461-4.853,2.194-7.211
	c0.775-2.332,1.382-4.247,1.846-5.776l-23.189-5.824c-1.994-0.464-3.608-1.509-4.874-3.154C5.622,126.88,5,125.092,5,123.197
	c0-2.627,0.892-4.832,2.711-6.657L24.74,99.986L7.711,83.46C5.891,81.64,5,79.408,5,76.786c0-1.968,0.623-3.767,1.936-5.338
	c1.324-1.599,2.922-2.622,4.827-3.107l23.189-5.829c-0.464-1.403-1.07-3.318-1.846-5.702c-0.733-2.374-1.451-4.806-2.194-7.254
	c-0.718-2.479-1.346-4.832-1.889-7.084c-0.58-2.264-0.828-4.109-0.828-5.539c0-2.453,0.828-4.542,2.521-6.241
	c1.73-1.72,3.771-2.542,6.141-2.542c1.435,0,3.28,0.269,5.612,0.822c2.279,0.56,4.669,1.214,7.138,1.941
	c2.453,0.775,4.863,1.509,7.185,2.236c2.321,0.697,4.215,1.277,5.655,1.768l5.86-23.079c0.448-1.988,1.509-3.64,3.202-4.948
	c1.636-1.313,3.435-1.946,5.328-1.946c2.77,0,4.906,0.902,6.309,2.722l16.887,17.008l16.575-17.008
	c1.788-1.819,3.925-2.722,6.304-2.722c2.121,0,4.004,0.602,5.64,1.841c1.614,1.219,2.658,2.912,3.144,5.054l5.824,23.079
	c1.44-0.49,3.345-1.07,5.724-1.768c2.379-0.728,4.758-1.461,7.185-2.236c2.438-0.728,4.79-1.382,7.101-1.941
	c2.263-0.554,4.157-0.822,5.581-0.822c2.3,0,4.342,0.822,6.141,2.542c1.767,1.699,2.669,3.788,2.669,6.241
	c0,1.43-0.279,3.275-0.833,5.539c-0.56,2.252-1.208,4.604-1.963,7.084c-0.754,2.448-1.509,4.858-2.216,7.18
	c-0.696,2.353-1.276,4.272-1.767,5.776l23.063,5.829c1.993,0.485,3.629,1.551,4.895,3.154c1.256,1.646,1.895,3.402,1.895,5.291
	c0,2.622-0.871,4.854-2.611,6.674l-17.245,16.526L192.381,116.54z"/>
</svg>
