<?xml version="1.0" encoding="utf-8"?>
<!-- Generator: Adobe Illustrator 16.0.4, SVG Export Plug-In . SVG Version: 6.00 Build 0)  -->
<!DOCTYPE svg PUBLIC "-//W3C//DTD SVG 1.1//EN" "http://www.w3.org/Graphics/SVG/1.1/DTD/svg11.dtd">
<svg version="1.1" id="Layer_1" xmlns="http://www.w3.org/2000/svg" xmlns:xlink="http://www.w3.org/1999/xlink" x="0px" y="0px"
	 width="200px" height="200px" viewBox="0 0 200 200" style="enable-background:new 0 0 200 200;" xml:space="preserve">
<style type="text/css">
<![CDATA[
	.st0{fill:#E5912F;}
	.st1{fill:#4D4C4E;}
	.st2{fill:#5958C1;}
	.st3{fill:#8DB734;}
	.st4{fill:#BF7A7C;}
	.st5{fill:#90C84B;}
	.st6{fill:#60B22E;}
	.st7{fill:#6B7475;}
	.st8{fill:#00B4CF;}
	.st9{fill:#D6264F;}
]]>
</style>
<g>
	<path class="st7" d="M163.194,33.017L67.138,5.132c-1.064-0.295-2.203-0.095-3.104,0.591L35.632,27.334
		c-1.233,0.938-1.66,2.53-1.233,3.933v134.932L133.797,195V58.086L42.021,31.478L66.89,12.554l91.766,26.651v134.193
		c0,1.993,1.598,3.605,3.548,3.605c1.977,0,3.559-1.612,3.559-3.605V36.475C165.762,34.872,164.707,33.449,163.194,33.017z"/>
	<polygon class="st7" points="137.724,188.422 154.333,177.004 154.333,42.41 67.876,16.866 49.785,30.36 137.782,54.375 	"/>
</g>
</svg>
